{
  "content": [
    {
      "description": null,
      "noteId": 204,
      "name": "Coffee",
      "imgPath": "/scentdb-ui/mocks/images/notes/photo-1540965555-ef9a836372ed.jpg"
    },
    {
      "description": null,
      "noteId": 131,
      "name": "Oakmoss",
      "imgPath": "/scentdb-ui/mocks/images/notes/Oakmoss.jpg"
    },
    {
      "description": null,
      "noteId": 190,
      "name": "Opoponax",
      "imgPath": "/scentdb-ui/mocks/images/notes/opoponax.jpg"
    },
    {
      "description": null,
      "noteId": 89,
      "name": "Jasmine",
      "imgPath": "/scentdb-ui/mocks/images/notes/jasmine-plants.jpg"
    },
    {
      "description": null,
      "noteId": 163,
      "name": "Juniper Berry",
      "imgPath": "/scentdb-ui/mocks/images/notes/Juniper-Berry.jpg"
    },
    {
      "description": null,
      "noteId": 180,
      "name": "Agarwood",
      "imgPath": "/scentdb-ui/mocks/images/notes/agarwood.jpg"
    },
    {
      "description": null,
      "noteId": 199,
      "name": "Praliné",
      "imgPath": "/scentdb-ui/mocks/images/notes/photo-1579440676594-3fef6d6ef538.jpg"
    },
    {
      "description": null,
      "noteId": 162,
      "name": "Birch",
      "imgPath": "/scentdb-ui/mocks/images/notes/photo-1507614498949-edbabc86a14f.jpg"
    },
    {
      "description": null,
      "noteId": 171,
      "name": "Leather",
      "imgPath": "/scentdb-ui/mocks/images/notes/leather.jpg"
    }
  ],
  "pageable": {
    "sort": {
      "sorted": false,
      "unsorted": true,
      "empty": true
    },
    "offset": 27,
    "pageNumber": 3,
    "pageSize": 9,
    "paged": true,
    "unpaged": false
  },
  "totalPages": 8,
  "totalElements": 65,
  "last": false,
  "first": false,
  "size": 9,
  "number": 3,
  "sort": {
    "sorted": false,
    "unsorted": true,
    "empty": true
  },
  "numberOfElements": 9,
  "empty": false
}