{
  "content": [
    {
      "perfumerId": 233,
      "name": "Roja Dove",
      "details": null,
      "imagePath": "/mocks/images/perfumers/ROJA-MOSCOW_Edited.jpg",
      "company": {
        "companyId": 232,
        "name": "Roja Parfums",
        "website": "",
        "description": null,
        "companyType": "NICHE",
        "imagePath": "/mocks/images/companies/Roja-logo.jpg"
      },
      "perfumes": [
        {
          "perfumeId": 234,
          "title": "Elysium",
          "launchYear": "2017",
          "gender": "MALE",
          "perfumeType": "EAU_DE_COLOGNE",
          "bottleSizes": "100ml",
          "description": null,
          "perfumeNotes": [
            {
              "notes": [
                192,
                143,
                91,
                163,
                156,
                112,
                151,
                144,
                133,
                171,
                130
              ],
              "type": "base notes"
            },
            {
              "notes": [
                105,
                87
              ],
              "type": "top notes"
            },
            {
              "notes": [
                103,
                184,
                161,
                89
              ],
              "type": "middle notes"
            }
          ],
          "images": [
            {
              "perfumeImageId": 235,
              "imagePath": "/mocks/images/perfumes/92779_33496f08edfec3d35bcdbf2a5623f701_elysium_pour_homme_parfum_cologne.jpg"
            },
            {
              "perfumeImageId": 236,
              "imagePath": "/mocks/images/perfumes/92779_img-8091-roja_parfums-elysium_pour_homme_parfum_cologne_720.jpg"
            }
          ]
        }
      ]
    },
    {
      "perfumerId": 247,
      "name": "Annick Menardo",
      "details": null,
      "imagePath": "/mocks/images/perfumers/annick-menardo-full.jpg",
      "company": {
        "companyId": 121,
        "name": "Dior",
        "website": "",
        "description": null,
        "companyType": "DESIGNER",
        "imagePath": "/mocks/images/companies/ac452a99938c35aa0519d215b13ab9ee.jpg"
      },
      "perfumes": [
        {
          "perfumeId": 248,
          "title": "Hypnotic Poison",
          "launchYear": "1998",
          "gender": "FEMALE",
          "perfumeType": "EAU_DE_TOILETTE",
          "bottleSizes": "30ml,50ml,100ml",
          "description": null,
          "perfumeNotes": [
            {
              "notes": [
                91,
                110
              ],
              "type": "base notes"
            },
            {
              "notes": [
                137
              ],
              "type": "top notes"
            },
            {
              "notes": [
                90,
                179,
                89
              ],
              "type": "middle notes"
            }
          ],
          "images": [
            {
              "perfumeImageId": 249,
              "imagePath": "/mocks/images/perfumes/675_img-6131-dior-hypnotic_poison_eau_de_toilette_720.jpg"
            }
          ]
        }
      ]
    },
    {
      "perfumerId": 223,
      "name": "Dominique Ropion",
      "details": null,
      "imagePath": "/mocks/images/perfumers/dominique-ropion-square-1.jpg",
      "company": {
        "companyId": 220,
        "name": "Editions de Parfums Frédéric Malle",
        "website": "",
        "description": null,
        "companyType": "NICHE",
        "imagePath": "/mocks/images/companies/frederic-malle-1.jpg"
      },
      "perfumes": [
        {
          "perfumeId": 224,
          "title": "Portrait of a Lady",
          "launchYear": "2010",
          "gender": "FEMALE",
          "perfumeType": "EXTRAIT_DE_PARFUM",
          "bottleSizes": "100ml,75ml,50ml",
          "description": null,
          "perfumeNotes": [
            {
              "notes": [
                143,
                148,
                144
              ],
              "type": "base notes"
            },
            {
              "notes": [
                134,
                90,
                161,
                221,
                222
              ],
              "type": "top notes"
            },
            {
              "notes": [
                110,
                142,
                109
              ],
              "type": "middle notes"
            }
          ],
          "images": [
            {
              "perfumeImageId": 225,
              "imagePath": "/mocks/images/perfumes/10407_img-9893-editions_de_parfums_frederic_malle-portrait_of_a_lady_720.jpg"
            }
          ]
        }
      ]
    },
    {
      "perfumerId": 205,
      "name": "Nathalie Lorson",
      "details": null,
      "imagePath": "/mocks/images/perfumers/Firmenich_AG_NATHALIE_LORSON_COULEUR23370_credit_Alexandre_Guirkinger.jpg",
      "company": {
        "companyId": 197,
        "name": "Yves Saint Laurent",
        "website": "",
        "description": null,
        "companyType": "DESIGNER",
        "imagePath": "/mocks/images/companies/Yves_Saint_Laurent_logo_and_symbol.jpg"
      },
      "perfumes": [
        {
          "perfumeId": 206,
          "title": "Black Opium",
          "launchYear": "2014",
          "gender": "FEMALE",
          "perfumeType": "EAU_DE_PARFUM",
          "bottleSizes": "30ml,50ml",
          "description": "<iframe class=\"ql-video\" frameborder=\"0\" allowfullscreen=\"true\" src=\"https://www.youtube.com/embed/uh4UURJANdk?showinfo=0\"></iframe><p><br></p>",
          "perfumeNotes": [
            {
              "notes": [
                192,
                109,
                91
              ],
              "type": "base notes"
            },
            {
              "notes": [
                112,
                140
              ],
              "type": "top notes"
            },
            {
              "notes": [
                89,
                204
              ],
              "type": "middle notes"
            }
          ],
          "images": [
            {
              "perfumeImageId": 207,
              "imagePath": "/mocks/images/perfumes/45685_img-8962-yves_saint_laurent-black_opium_eau_de_parfum_720.jpg"
            },
            {
              "perfumeImageId": 208,
              "imagePath": "/mocks/images/perfumes/45685_bdb3d32b6e42456b8b8b750bc69646d2_black_opium.jpg"
            }
          ]
        }
      ]
    },
    {
      "perfumerId": 115,
      "name": "Hamid Merati-Kashani",
      "details": null,
      "imagePath": "/mocks/images/perfumers/Firmenich_AG_HAMID_MERATI_COULEUR25538.jpg",
      "company": {
        "companyId": 114,
        "name": "Firmenich",
        "website": "",
        "description": null,
        "companyType": "NICHE",
        "imagePath": "/mocks/images/companies/Firmenich.jpg"
      },
      "perfumes": [
        {
          "perfumeId": 116,
          "title": "Parfums de Marly",
          "launchYear": "2016",
          "gender": "MALE",
          "perfumeType": "EAU_DE_PARFUM",
          "bottleSizes": "75ml,125ml",
          "description": "<p><strong style=\"background-color: rgb(239, 242, 246); color: rgb(34, 34, 34);\">Layton</strong><span style=\"background-color: rgb(239, 242, 246); color: rgb(34, 34, 34);\">&nbsp;is a popular perfume by&nbsp;</span><a href=\"https://www.parfumo.net/Perfumes/Parfums_de_Marly\" rel=\"noopener noreferrer\" target=\"_blank\" style=\"background-color: rgb(239, 242, 246); color: rgb(34, 34, 34);\"><strong>Parfums de Marly</strong></a><span style=\"background-color: rgb(239, 242, 246); color: rgb(34, 34, 34);\">&nbsp;for men and was released in&nbsp;</span><a href=\"https://www.parfumo.net/Release_Years/2016\" rel=\"noopener noreferrer\" target=\"_blank\" style=\"background-color: rgb(239, 242, 246); color: rgb(34, 34, 34);\"><strong>2016</strong></a><span style=\"background-color: rgb(239, 242, 246); color: rgb(34, 34, 34);\">. The scent is sweet-spicy. Projection and longevity are above-average. It is still available to purchase.</span></p>",
          "perfumeNotes": [
            {
              "notes": [
                91,
                110,
                112,
                108,
                111,
                109
              ],
              "type": "base notes"
            },
            {
              "notes": [
                104,
                105,
                103,
                87
              ],
              "type": "top notes"
            },
            {
              "notes": [
                106,
                107,
                89
              ],
              "type": "middle notes"
            }
          ],
          "images": [
            {
              "perfumeImageId": 118,
              "imagePath": "/mocks/images/perfumes/293829.jpg"
            },
            {
              "perfumeImageId": 117,
              "imagePath": "/mocks/images/perfumes/71892_img-5479-parfums_de_marly-layton_720.jpg"
            }
          ]
        }
      ]
    },
    {
      "perfumerId": 243,
      "name": "Michel Almairac",
      "details": null,
      "imagePath": "/mocks/images/perfumers/michel-almairac.jpg",
      "company": {
        "companyId": 242,
        "name": "Chloé",
        "website": "",
        "description": null,
        "companyType": "DESIGNER",
        "imagePath": "/mocks/images/companies/1b444e01f0ea48cd6bcf10b9324ddff3.jpg"
      },
      "perfumes": [
        {
          "perfumeId": 244,
          "title": "Chloé",
          "launchYear": "2007",
          "gender": "FEMALE",
          "perfumeType": "EAU_DE_PARFUM",
          "bottleSizes": "20ml,30ml,50ml,75ml",
          "description": null,
          "perfumeNotes": [
            {
              "notes": [
                192,
                148
              ],
              "type": "base notes"
            },
            {
              "notes": [
                139
              ],
              "type": "top notes"
            },
            {
              "notes": [
                90
              ],
              "type": "middle notes"
            }
          ],
          "images": [
            {
              "perfumeImageId": 245,
              "imagePath": "/mocks/images/perfumes/P56648_principal.jpg"
            },
            {
              "perfumeImageId": 246,
              "imagePath": "/mocks/images/perfumes/res_aa0e0c710f01dc743ed2aebd4ab61dfe.jpg"
            }
          ]
        }
      ]
    },
    {
      "perfumerId": 165,
      "name": "Olivier Creed",
      "details": null,
      "imagePath": "/mocks/images/perfumers/o.164.jpg",
      "company": {
        "companyId": 164,
        "name": "Creed",
        "website": "",
        "description": null,
        "companyType": "NICHE",
        "imagePath": "/mocks/images/companies/creed_silver_mountain_water_edp_perfume_for_men_120ml_1_1200x1200.jpg"
      },
      "perfumes": [
        {
          "perfumeId": 166,
          "title": "Aventus",
          "launchYear": "2010",
          "gender": "MALE",
          "perfumeType": "EAU_DE_PARFUM",
          "bottleSizes": "50ml,100ml",
          "description": "<p>Aventus&nbsp;is an Eau de Parfum launched by Paris-based perfume house&nbsp;Creed. The fragrance was released in September 2010, as part of the celebrations for Creed's 250th Anniversary.</p>",
          "perfumeNotes": [
            {
              "notes": [
                144,
                130,
                131,
                91
              ],
              "type": "base notes"
            },
            {
              "notes": [
                103,
                161,
                87,
                160
              ],
              "type": "top notes"
            },
            {
              "notes": [
                162,
                163,
                109,
                89
              ],
              "type": "middle notes"
            }
          ],
          "images": [
            {
              "perfumeImageId": 167,
              "imagePath": "/mocks/images/perfumes/nm_2220365_100000_c.jpg"
            },
            {
              "perfumeImageId": 169,
              "imagePath": "/mocks/images/perfumes/9438_e3b0786cdb9e3bd42c201f83b425ecf4.jpg"
            },
            {
              "perfumeImageId": 168,
              "imagePath": "/mocks/images/perfumes/9438_img-3926-creed-aventus_eau_de_parfum_720.jpg"
            }
          ]
        }
      ]
    },
    {
      "perfumerId": 200,
      "name": "Olivier Polge",
      "details": null,
      "imagePath": "/mocks/images/perfumers/Olivier-Polge-3.jpg",
      "company": {
        "companyId": 196,
        "name": "Lancôme",
        "website": "",
        "description": null,
        "companyType": "NICHE",
        "imagePath": "/mocks/images/companies/lancome-3-logo-png-transparent.jpg"
      },
      "perfumes": [
        {
          "perfumeId": 201,
          "title": "La Vie est Belle L'Eau de Parfum",
          "launchYear": "2012",
          "gender": "FEMALE",
          "perfumeType": "EAU_DE_PARFUM",
          "bottleSizes": "100ml,75ml,50ml,30ml",
          "description": null,
          "perfumeNotes": [
            {
              "notes": [
                109,
                92,
                91,
                199
              ],
              "type": "base notes"
            },
            {
              "notes": [
                161,
                198
              ],
              "type": "top notes"
            },
            {
              "notes": [
                88,
                140,
                89
              ],
              "type": "middle notes"
            }
          ],
          "images": [
            {
              "perfumeImageId": 202,
              "imagePath": "/mocks/images/perfumes/18914_t4ou5s_la_vie_est_belle_720.jpg"
            },
            {
              "perfumeImageId": 203,
              "imagePath": "/mocks/images/perfumes/18914_a1f4d62b950d491f10ddef247201f246_la_vie_est_belle.jpg"
            }
          ]
        },
        {
          "perfumeId": 238,
          "title": "Florabotanica",
          "launchYear": "2012",
          "gender": "FEMALE",
          "perfumeType": "EAU_FRAICHE",
          "bottleSizes": "30ml,50ml,100ml",
          "description": null,
          "perfumeNotes": [
            {
              "notes": [
                133
              ],
              "type": "base notes"
            },
            {
              "notes": [
                148
              ],
              "type": "top notes"
            },
            {
              "notes": [
                90,
                154
              ],
              "type": "middle notes"
            }
          ],
          "images": [
            {
              "perfumeImageId": 240,
              "imagePath": "/mocks/images/perfumes/19424_acsbdy_florabotanica_720.jpg"
            },
            {
              "perfumeImageId": 241,
              "imagePath": "/mocks/images/perfumes/19424_11bf70aa745552cfd09d746ded877a42_florabotanica.jpg"
            },
            {
              "perfumeImageId": 239,
              "imagePath": "/mocks/images/perfumes/19424_ecc32fece728516add7be1970f142827_florabotanica.jpg"
            }
          ]
        }
      ]
    }
  ],
  "pageable": {
    "sort": {
      "sorted": false,
      "unsorted": true,
      "empty": true
    },
    "offset": 9,
    "pageNumber": 1,
    "pageSize": 9,
    "paged": true,
    "unpaged": false
  },
  "totalPages": 2,
  "totalElements": 17,
  "last": true,
  "first": false,
  "size": 9,
  "number": 1,
  "sort": {
    "sorted": false,
    "unsorted": true,
    "empty": true
  },
  "numberOfElements": 8,
  "empty": false
}