{
  "content": [
    {
      "perfumerId": 86,
      "name": "Jacques Guerlain",
      "details": "\"<p>Jacques Edouard Guerlain was a French perfumer, the third and most famous of the Guerlain family. One of the most prolific and influential perfumers of the 20th century, over eighty of Guerlain's perfumes remain known, though certain estimates suggest he composed some four hundred.</p>\"",
      "imagePath": "/scentdb-ui/mocks/images/perfumers/jacques-guerlain.jpg",
      "company": {
        "companyId": 85,
        "name": "Guerlain",
        "website": "https://www.guerlain.com/",
        "description": "\"<p>Guerlain is one of the oldest and largest among international producers of high-quality beauty products.</p>\"",
        "companyType": "NICHE",
        "imagePath": "/scentdb-ui/mocks/images/companies/guerlain-logo-png-Transparent-Images.jpg"
      },
      "perfumes": [
        {
          "perfumeId": 100,
          "title": "Shalimar",
          "launchYear": "1986",
          "gender": "FEMALE",
          "perfumeType": "EAU_DE_PARFUM",
          "bottleSizes": "50ml,30ml",
          "description": "<p><strong>Shalimar (Eau de Parfum)</strong>&nbsp;is a popular perfume by&nbsp;<strong>Guerlain&nbsp;</strong>for women and was released in&nbsp;<strong>1986</strong>. The scent is oriental-spicy. Projection and longevity are above-average. It is being marketed by LVMH.</p>",
          "perfumeNotes": [
            {
              "notes": [
                92,
                91
              ],
              "type": "base notes"
            },
            {
              "notes": [
                87
              ],
              "type": "top notes"
            },
            {
              "notes": [
                88,
                90,
                89
              ],
              "type": "middle notes"
            }
          ],
          "images": [
            {
              "perfumeImageId": 101,
              "imagePath": "/scentdb-ui/mocks/images/perfumes/guerlain-shalimar-eau-de-parfum-pentru-femei___12%20(1).jpg"
            },
            {
              "perfumeImageId": 102,
              "imagePath": "/scentdb-ui/mocks/images/perfumes/guerlain-shalimar-eau-de-parfum-pentru-femei___12.jpg"
            }
          ]
        },
        {
          "perfumeId": 135,
          "title": "Mitsouko",
          "launchYear": "1919",
          "gender": "FEMALE",
          "perfumeType": "EAU_DE_TOILETTE",
          "bottleSizes": "50ml",
          "description": "<p>Mitsouko&nbsp;is a 1919&nbsp;perfume&nbsp;by&nbsp;Guerlain. Its name is derived from the French&nbsp;transliteration&nbsp;of a&nbsp;Japanese female&nbsp;personal name&nbsp;Mitsuko.</p>",
          "perfumeNotes": [
            {
              "notes": [
                132,
                133,
                130,
                131,
                134
              ],
              "type": "base notes"
            },
            {
              "notes": [
                90,
                89,
                126,
                87
              ],
              "type": "top notes"
            },
            {
              "notes": [
                129,
                128,
                127
              ],
              "type": "middle notes"
            }
          ],
          "images": [
            {
              "perfumeImageId": 136,
              "imagePath": "/scentdb-ui/mocks/images/perfumes/50ml-199lei_edttt.jpg"
            }
          ]
        }
      ]
    },
    {
      "perfumerId": 122,
      "name": "François Demachy",
      "details": null,
      "imagePath": "/scentdb-ui/mocks/images/perfumers/06Y0184_HR.jpg",
      "company": {
        "companyId": 121,
        "name": "Dior",
        "website": "",
        "description": null,
        "companyType": "DESIGNER",
        "imagePath": "/scentdb-ui/mocks/images/companies/ac452a99938c35aa0519d215b13ab9ee.jpg"
      },
      "perfumes": [
        {
          "perfumeId": 123,
          "title": "Dior Homme Intense",
          "launchYear": "2011",
          "gender": "MALE",
          "perfumeType": "EAU_DE_PARFUM",
          "bottleSizes": "150ml,100ml,50ml",
          "description": "<p><span style=\"color: rgb(0, 0, 0);\">Dior Homme Intense is the third fragrances in the Homme series, following</span>&nbsp;Dior Homme&nbsp;and&nbsp;Dior Homme Cologne<span style=\"color: rgb(0, 0, 0);\">. The fragrance was originally a limited edition, but is now part of the permanent line up.</span></p>",
          "perfumeNotes": [
            {
              "notes": [
                120
              ],
              "type": "base notes"
            },
            {
              "notes": [
                88
              ],
              "type": "top notes"
            },
            {
              "notes": [
                119
              ],
              "type": "middle notes"
            }
          ],
          "images": [
            {
              "perfumeImageId": 125,
              "imagePath": "/scentdb-ui/mocks/images/perfumes/13889_img-2650-dior-christian-dior-dior-homme-intense-2011_720.jpg"
            },
            {
              "perfumeImageId": 124,
              "imagePath": "/scentdb-ui/mocks/images/perfumes/dior-homme-intense-edp-150ml_big.jpg"
            }
          ]
        }
      ]
    },
    {
      "perfumerId": 147,
      "name": "Jacques Polge",
      "details": null,
      "imagePath": "/scentdb-ui/mocks/images/perfumers/101850336_2342590866046808_3044476289185480704_n.jpg",
      "company": {
        "companyId": 146,
        "name": "Chanel",
        "website": "",
        "description": null,
        "companyType": "DESIGNER",
        "imagePath": "/scentdb-ui/mocks/images/companies/_1513770089_693_chanel1_3f16706be8a9-desktop.jpg"
      },
      "perfumes": [
        {
          "perfumeId": 149,
          "title": "Coco",
          "launchYear": "1984",
          "gender": "FEMALE",
          "perfumeType": "EXTRAIT_DE_PARFUM",
          "bottleSizes": "15ml",
          "description": "<h1>Description</h1><p>COCO expresses the intensity of Gabrielle Chanel's personality, her love of all things baroque. The quintessence of this oriental fragrance with floral and spicy notes, the Parfum is housed in an iconic bottle hand-sealed with a baudruche film.</p><p><br></p><h1>Composition</h1><p>A baroque score written with oriental, floral and spicy notes.</p><p>The fragrance opens with a citrus note of Sicilian Mandarin, and reveals a voluptuous heart of Jasmine and May Rose Absolutes. A luxuriant harmony with an enveloping trail tinged with Indonesian Patchouli, Tonka note and Benzoin.</p>",
          "perfumeNotes": [
            {
              "notes": [
                144,
                148,
                145,
                143,
                109,
                92,
                142
              ],
              "type": "base notes"
            },
            {
              "notes": [
                104,
                139,
                138,
                137
              ],
              "type": "top notes"
            },
            {
              "notes": [
                89,
                134,
                141,
                129,
                90,
                140,
                88
              ],
              "type": "middle notes"
            }
          ],
          "images": [
            {
              "perfumeImageId": 150,
              "imagePath": "/scentdb-ui/mocks/images/perfumes/coco-parfum-0-5fl-oz--packshot-default-113032-8824202526750.jpg"
            }
          ]
        }
      ]
    },
    {
      "perfumerId": 178,
      "name": "Richard Herpin",
      "details": null,
      "imagePath": "/scentdb-ui/mocks/images/perfumers/86678ad11433ea382642391440381553.jpg",
      "company": {
        "companyId": 177,
        "name": "Tom Ford",
        "website": "",
        "description": null,
        "companyType": "DESIGNER",
        "imagePath": "/scentdb-ui/mocks/images/companies/26163.jpg"
      },
      "perfumes": [
        {
          "perfumeId": 181,
          "title": "Oud Wood",
          "launchYear": "2007",
          "gender": "UNISEX",
          "perfumeType": "EAU_DE_PARFUM",
          "bottleSizes": "50ml,200ml",
          "description": "<p><span style=\"background-color: rgb(254, 254, 254); color: rgb(10, 10, 10);\">Private Blend is first and exclusive collection by Tom Ford, which includes twelve eau de parfums, each of them can be used solely or in combination with other fragrances from the collection.</span></p>",
          "perfumeNotes": [
            {
              "notes": [
                110,
                179,
                92,
                180,
                111
              ],
              "type": "base notes"
            },
            {
              "notes": [
                148
              ],
              "type": "top notes"
            },
            {
              "notes": [
                133
              ],
              "type": "middle notes"
            }
          ],
          "images": [
            {
              "perfumeImageId": 182,
              "imagePath": "/scentdb-ui/mocks/images/perfumes/3840_img-6645-tom_ford-oud_wood_eau_de_parfum_720.jpg"
            }
          ]
        }
      ]
    },
    {
      "perfumerId": 214,
      "name": "Alberto Morillas",
      "details": null,
      "imagePath": "/scentdb-ui/mocks/images/perfumers/alberto_0.jpg",
      "company": {
        "companyId": 185,
        "name": "Giorgio Armani",
        "website": "",
        "description": null,
        "companyType": "DESIGNER",
        "imagePath": "/scentdb-ui/mocks/images/companies/1-giorgio-armani-logo-edit-voros.jpg"
      },
      "perfumes": [
        {
          "perfumeId": 216,
          "title": "Acqua di Giò Profumo",
          "launchYear": "2015",
          "gender": "MALE",
          "perfumeType": "EAU_DE_PARFUM",
          "bottleSizes": "75ml,125ml",
          "description": null,
          "perfumeNotes": [
            {
              "notes": [
                109,
                142
              ],
              "type": "base notes"
            },
            {
              "notes": [
                215,
                87,
                132
              ],
              "type": "top notes"
            },
            {
              "notes": [
                107,
                153
              ],
              "type": "middle notes"
            }
          ],
          "images": [
            {
              "perfumeImageId": 217,
              "imagePath": "/scentdb-ui/mocks/images/perfumes/56294_p5vysd_acqua_di_gio_profumo_720.jpg"
            },
            {
              "perfumeImageId": 218,
              "imagePath": "/scentdb-ui/mocks/images/perfumes/56294_05e8341af01520f77b58b5c2ca9c7b5f_acqua_di_gio_profumo.jpg"
            },
            {
              "perfumeImageId": 219,
              "imagePath": "/scentdb-ui/mocks/images/perfumes/56294_923b57e613e6f0acbf779d3d3d2bf6ba_acqua_di_gio_profumo.jpg"
            }
          ]
        }
      ]
    },
    {
      "perfumerId": 157,
      "name": "Edmond Roudnitska",
      "details": null,
      "imagePath": "/scentdb-ui/mocks/images/perfumers/olivier-maure.jpg",
      "company": {
        "companyId": 121,
        "name": "Dior",
        "website": "",
        "description": null,
        "companyType": "DESIGNER",
        "imagePath": "/scentdb-ui/mocks/images/companies/ac452a99938c35aa0519d215b13ab9ee.jpg"
      },
      "perfumes": [
        {
          "perfumeId": 158,
          "title": "Miss Dior",
          "launchYear": "1947",
          "gender": "FEMALE",
          "perfumeType": "EAU_DE_TOILETTE",
          "bottleSizes": "100ml",
          "description": null,
          "perfumeNotes": [
            {
              "notes": [
                131,
                109,
                110,
                156
              ],
              "type": "base notes"
            },
            {
              "notes": [
                153,
                152,
                87,
                151
              ],
              "type": "top notes"
            },
            {
              "notes": [
                89,
                90,
                140,
                154,
                155
              ],
              "type": "middle notes"
            }
          ],
          "images": [
            {
              "perfumeImageId": 159,
              "imagePath": "/scentdb-ui/mocks/images/perfumes/miss-dior-originale.jpg"
            }
          ]
        }
      ]
    },
    {
      "perfumerId": 173,
      "name": "Sophie Labbé",
      "details": null,
      "imagePath": "/scentdb-ui/mocks/images/perfumers/Sophie-Labbe-890x1024.jpg",
      "company": {
        "companyId": 172,
        "name": "Valentino",
        "website": "",
        "description": null,
        "companyType": "DESIGNER",
        "imagePath": "/scentdb-ui/mocks/images/companies/1024px-Valentino_logo.svg.jpg"
      },
      "perfumes": [
        {
          "perfumeId": 186,
          "title": "Armani Privé - Cuir Majesté",
          "launchYear": "2016",
          "gender": "UNISEX",
          "perfumeType": "EAU_DE_COLOGNE",
          "bottleSizes": "50ml",
          "description": null,
          "perfumeNotes": [
            {
              "notes": [
                180,
                91
              ],
              "type": "base notes"
            },
            {
              "notes": [
                183,
                142
              ],
              "type": "top notes"
            },
            {
              "notes": [
                171,
                184
              ],
              "type": "middle notes"
            }
          ],
          "images": [
            {
              "perfumeImageId": 188,
              "imagePath": "/scentdb-ui/mocks/images/perfumes/15787271_28719793_2048.jpg"
            },
            {
              "perfumeImageId": 187,
              "imagePath": "/scentdb-ui/mocks/images/perfumes/77511_ktg5kd_armani_prive__cuir_majeste_720.jpg"
            }
          ]
        },
        {
          "perfumeId": 194,
          "title": "Shooting Stars - Amber Star",
          "launchYear": "2013",
          "gender": "UNISEX",
          "perfumeType": "EAU_DE_COLOGNE",
          "bottleSizes": "50ml",
          "description": null,
          "perfumeNotes": [
            {
              "notes": [
                143,
                190,
                91,
                110
              ],
              "type": "base notes"
            },
            {
              "notes": [
                129,
                192,
                130
              ],
              "type": "top notes"
            },
            {
              "notes": [
                189,
                193,
                108
              ],
              "type": "middle notes"
            }
          ],
          "images": [
            {
              "perfumeImageId": 195,
              "imagePath": "/scentdb-ui/mocks/images/perfumes/33185_img-5376-xerjoff-shooting_stars__amber_star_720.jpg"
            }
          ]
        },
        {
          "perfumeId": 174,
          "title": "Valentino Uomo Intense",
          "launchYear": "2016",
          "gender": "MALE",
          "perfumeType": "EAU_DE_PARFUM",
          "bottleSizes": "100ml",
          "description": null,
          "perfumeNotes": [
            {
              "notes": [
                91,
                171
              ],
              "type": "base notes"
            },
            {
              "notes": [
                104,
                170
              ],
              "type": "top notes"
            },
            {
              "notes": [
                88,
                92
              ],
              "type": "middle notes"
            }
          ],
          "images": [
            {
              "perfumeImageId": 176,
              "imagePath": "/scentdb-ui/mocks/images/perfumes/73759_3cb9cff940e7a342bed5525d0e5e2d5b_valentino_uomo_intense.jpg"
            },
            {
              "perfumeImageId": 175,
              "imagePath": "/scentdb-ui/mocks/images/perfumes/73759_img-4379-valentino-valentino_uomo_intense_720.jpg"
            }
          ]
        }
      ]
    },
    {
      "perfumerId": 210,
      "name": "Anne Flipo",
      "details": null,
      "imagePath": "/scentdb-ui/mocks/images/perfumers/Anne-Flipo-Portrait-1.jpg",
      "company": {
        "companyId": 197,
        "name": "Yves Saint Laurent",
        "website": "",
        "description": null,
        "companyType": "DESIGNER",
        "imagePath": "/scentdb-ui/mocks/images/companies/Yves_Saint_Laurent_logo_and_symbol.jpg"
      },
      "perfumes": [
        {
          "perfumeId": 211,
          "title": "La Nuit de L'Homme",
          "launchYear": "2009",
          "gender": "MALE",
          "perfumeType": "EAU_DE_TOILETTE",
          "bottleSizes": "60ml,40ml,100ml",
          "description": null,
          "perfumeNotes": [
            {
              "notes": [
                92,
                133
              ],
              "type": "base notes"
            },
            {
              "notes": [
                111,
                87
              ],
              "type": "top notes"
            },
            {
              "notes": [
                105,
                209,
                192
              ],
              "type": "middle notes"
            }
          ],
          "images": [
            {
              "perfumeImageId": 212,
              "imagePath": "/scentdb-ui/mocks/images/perfumes/1844_img-6527-yves_saint_laurent-la_nuit_de_l_homme_eau_de_toilette_720.jpg"
            },
            {
              "perfumeImageId": 213,
              "imagePath": "/scentdb-ui/mocks/images/perfumes/61r32iYtNkL._SL1500_.jpg"
            }
          ]
        }
      ]
    },
    {
      "perfumerId": 227,
      "name": "Lucas Sieuzac",
      "details": null,
      "imagePath": "/scentdb-ui/mocks/images/perfumers/post-7.jpg",
      "company": {
        "companyId": 226,
        "name": "Amouage",
        "website": "",
        "description": null,
        "companyType": "NICHE",
        "imagePath": "/scentdb-ui/mocks/images/companies/6429f3bdb07d4e6594d6c1cab67eb9a8.jpg"
      },
      "perfumes": [
        {
          "perfumeId": 229,
          "title": "Reflection Man",
          "launchYear": "2007",
          "gender": "MALE",
          "perfumeType": "ESPIRIT_DE_PARFUM",
          "bottleSizes": "100ml",
          "description": null,
          "perfumeNotes": [
            {
              "notes": [
                109,
                110,
                133,
                192
              ],
              "type": "base notes"
            },
            {
              "notes": [
                112,
                228
              ],
              "type": "top notes"
            },
            {
              "notes": [
                89,
                140,
                88,
                129
              ],
              "type": "middle notes"
            }
          ],
          "images": [
            {
              "perfumeImageId": 231,
              "imagePath": "/scentdb-ui/mocks/images/perfumes/2057_fdae1df6be376f36390fc9015ac8c9fc_reflection_man.jpg"
            },
            {
              "perfumeImageId": 230,
              "imagePath": "/scentdb-ui/mocks/images/perfumes/2057_img-4648-amouage-reflection_man_720.jpg"
            }
          ]
        }
      ]
    }
  ],
  "pageable": {
    "sort": {
      "sorted": false,
      "unsorted": true,
      "empty": true
    },
    "offset": 0,
    "pageNumber": 0,
    "pageSize": 9,
    "paged": true,
    "unpaged": false
  },
  "totalPages": 2,
  "totalElements": 17,
  "last": false,
  "first": true,
  "size": 9,
  "number": 0,
  "sort": {
    "sorted": false,
    "unsorted": true,
    "empty": true
  },
  "numberOfElements": 9,
  "empty": false
}