{
  "content": [
    {
      "perfumeId": 201,
      "title": "La Vie est Belle L'Eau de Parfum",
      "launchYear": "2012",
      "gender": "FEMALE",
      "perfumeType": "EAU_DE_PARFUM",
      "bottleSizes": "100ml,75ml,50ml,30ml",
      "description": null,
      "perfumer": {
        "perfumerId": 200,
        "name": "Olivier Polge",
        "details": null,
        "imagePath": "/scentdb-ui/mocks/images/perfumers/Olivier-Polge-3.jpg"
      },
      "company": {
        "companyId": 196,
        "name": "Lancôme",
        "website": "",
        "description": null,
        "companyType": "NICHE",
        "imagePath": "/scentdb-ui/mocks/images/companies/lancome-3-logo-png-transparent.jpg"
      },
      "perfumeNotes": [
        {
          "notes": [
            109,
            92,
            91,
            199
          ],
          "type": "base notes"
        },
        {
          "notes": [
            161,
            198
          ],
          "type": "top notes"
        },
        {
          "notes": [
            88,
            140,
            89
          ],
          "type": "middle notes"
        }
      ],
      "images": [
        {
          "perfumeImageId": 202,
          "imagePath": "/scentdb-ui/mocks/images/perfumes/18914_t4ou5s_la_vie_est_belle_720.jpg"
        },
        {
          "perfumeImageId": 203,
          "imagePath": "/scentdb-ui/mocks/images/perfumes/18914_a1f4d62b950d491f10ddef247201f246_la_vie_est_belle.jpg"
        }
      ]
    },
    {
      "perfumeId": 116,
      "title": "Parfums de Marly",
      "launchYear": "2016",
      "gender": "MALE",
      "perfumeType": "EAU_DE_PARFUM",
      "bottleSizes": "75ml,125ml",
      "description": "<p><strong style=\"background-color: rgb(239, 242, 246); color: rgb(34, 34, 34);\">Layton</strong><span style=\"background-color: rgb(239, 242, 246); color: rgb(34, 34, 34);\">&nbsp;is a popular perfume by&nbsp;</span><a href=\"https://www.parfumo.net/Perfumes/Parfums_de_Marly\" rel=\"noopener noreferrer\" target=\"_blank\" style=\"background-color: rgb(239, 242, 246); color: rgb(34, 34, 34);\"><strong>Parfums de Marly</strong></a><span style=\"background-color: rgb(239, 242, 246); color: rgb(34, 34, 34);\">&nbsp;for men and was released in&nbsp;</span><a href=\"https://www.parfumo.net/Release_Years/2016\" rel=\"noopener noreferrer\" target=\"_blank\" style=\"background-color: rgb(239, 242, 246); color: rgb(34, 34, 34);\"><strong>2016</strong></a><span style=\"background-color: rgb(239, 242, 246); color: rgb(34, 34, 34);\">. The scent is sweet-spicy. Projection and longevity are above-average. It is still available to purchase.</span></p>",
      "perfumer": {
        "perfumerId": 115,
        "name": "Hamid Merati-Kashani",
        "details": null,
        "imagePath": "/scentdb-ui/mocks/images/perfumers/Firmenich_AG_HAMID_MERATI_COULEUR25538.jpg"
      },
      "company": {
        "companyId": 113,
        "name": "Parfums de Marly",
        "website": "",
        "description": null,
        "companyType": "NICHE",
        "imagePath": "/scentdb-ui/mocks/images/companies/PARFUM%20DE%20MARLY-Logo-01.jpg"
      },
      "perfumeNotes": [
        {
          "notes": [
            91,
            110,
            112,
            108,
            111,
            109
          ],
          "type": "base notes"
        },
        {
          "notes": [
            104,
            105,
            103,
            87
          ],
          "type": "top notes"
        },
        {
          "notes": [
            106,
            107,
            89
          ],
          "type": "middle notes"
        }
      ],
      "images": [
        {
          "perfumeImageId": 118,
          "imagePath": "/scentdb-ui/mocks/images/perfumes/293829.jpg"
        },
        {
          "perfumeImageId": 117,
          "imagePath": "/scentdb-ui/mocks/images/perfumes/71892_img-5479-parfums_de_marly-layton_720.jpg"
        }
      ]
    },
    {
      "perfumeId": 123,
      "title": "Dior Homme Intense",
      "launchYear": "2011",
      "gender": "MALE",
      "perfumeType": "EAU_DE_PARFUM",
      "bottleSizes": "150ml,100ml,50ml",
      "description": "<p><span style=\"color: rgb(0, 0, 0);\">Dior Homme Intense is the third fragrances in the Homme series, following</span>&nbsp;Dior Homme&nbsp;and&nbsp;Dior Homme Cologne<span style=\"color: rgb(0, 0, 0);\">. The fragrance was originally a limited edition, but is now part of the permanent line up.</span></p>",
      "perfumer": {
        "perfumerId": 122,
        "name": "François Demachy",
        "details": null,
        "imagePath": "/scentdb-ui/mocks/images/perfumers/06Y0184_HR.jpg"
      },
      "company": {
        "companyId": 121,
        "name": "Dior",
        "website": "",
        "description": null,
        "companyType": "DESIGNER",
        "imagePath": "/scentdb-ui/mocks/images/companies/ac452a99938c35aa0519d215b13ab9ee.jpg"
      },
      "perfumeNotes": [
        {
          "notes": [
            120
          ],
          "type": "base notes"
        },
        {
          "notes": [
            88
          ],
          "type": "top notes"
        },
        {
          "notes": [
            119
          ],
          "type": "middle notes"
        }
      ],
      "images": [
        {
          "perfumeImageId": 124,
          "imagePath": "/scentdb-ui/mocks/images/perfumes/dior-homme-intense-edp-150ml_big.jpg"
        },
        {
          "perfumeImageId": 125,
          "imagePath": "/scentdb-ui/mocks/images/perfumes/13889_img-2650-dior-christian-dior-dior-homme-intense-2011_720.jpg"
        }
      ]
    },
    {
      "perfumeId": 194,
      "title": "Shooting Stars - Amber Star",
      "launchYear": "2013",
      "gender": "UNISEX",
      "perfumeType": "EAU_DE_COLOGNE",
      "bottleSizes": "50ml",
      "description": null,
      "perfumer": {
        "perfumerId": 173,
        "name": "Sophie Labbé",
        "details": null,
        "imagePath": "/scentdb-ui/mocks/images/perfumers/Sophie-Labbe-890x1024.jpg"
      },
      "company": {
        "companyId": 191,
        "name": "Xerjoff",
        "website": "",
        "description": null,
        "companyType": "NICHE",
        "imagePath": "/scentdb-ui/mocks/images/companies/xerjoff-logo-300x300.jpg"
      },
      "perfumeNotes": [
        {
          "notes": [
            143,
            190,
            91,
            110
          ],
          "type": "base notes"
        },
        {
          "notes": [
            129,
            192,
            130
          ],
          "type": "top notes"
        },
        {
          "notes": [
            189,
            193,
            108
          ],
          "type": "middle notes"
        }
      ],
      "images": [
        {
          "perfumeImageId": 195,
          "imagePath": "/scentdb-ui/mocks/images/perfumes/33185_img-5376-xerjoff-shooting_stars__amber_star_720.jpg"
        }
      ]
    },
    {
      "perfumeId": 135,
      "title": "Mitsouko",
      "launchYear": "1919",
      "gender": "FEMALE",
      "perfumeType": "EAU_DE_TOILETTE",
      "bottleSizes": "50ml",
      "description": "<p>Mitsouko&nbsp;is a 1919&nbsp;perfume&nbsp;by&nbsp;Guerlain. Its name is derived from the French&nbsp;transliteration&nbsp;of a&nbsp;Japanese female&nbsp;personal name&nbsp;Mitsuko.</p>",
      "perfumer": {
        "perfumerId": 86,
        "name": "Jacques Guerlain",
        "details": "\"<p>Jacques Edouard Guerlain was a French perfumer, the third and most famous of the Guerlain family. One of the most prolific and influential perfumers of the 20th century, over eighty of Guerlain's perfumes remain known, though certain estimates suggest he composed some four hundred.</p>\"",
        "imagePath": "/scentdb-ui/mocks/images/perfumers/jacques-guerlain.jpg"
      },
      "company": {
        "companyId": 85,
        "name": "Guerlain",
        "website": "https://www.guerlain.com/",
        "description": "\"<p>Guerlain is one of the oldest and largest among international producers of high-quality beauty products.</p>\"",
        "companyType": "NICHE",
        "imagePath": "/scentdb-ui/mocks/images/companies/guerlain-logo-png-Transparent-Images.jpg"
      },
      "perfumeNotes": [
        {
          "notes": [
            132,
            133,
            130,
            131,
            134
          ],
          "type": "base notes"
        },
        {
          "notes": [
            90,
            89,
            126,
            87
          ],
          "type": "top notes"
        },
        {
          "notes": [
            129,
            128,
            127
          ],
          "type": "middle notes"
        }
      ],
      "images": [
        {
          "perfumeImageId": 136,
          "imagePath": "/scentdb-ui/mocks/images/perfumes/50ml-199lei_edttt.jpg"
        }
      ]
    },
    {
      "perfumeId": 206,
      "title": "Black Opium",
      "launchYear": "2014",
      "gender": "FEMALE",
      "perfumeType": "EAU_DE_PARFUM",
      "bottleSizes": "30ml,50ml",
      "description": "<iframe class=\"ql-video\" frameborder=\"0\" allowfullscreen=\"true\" src=\"https://www.youtube.com/embed/uh4UURJANdk?showinfo=0\"></iframe><p><br></p>",
      "perfumer": {
        "perfumerId": 205,
        "name": "Nathalie Lorson",
        "details": null,
        "imagePath": "/scentdb-ui/mocks/images/perfumers/Firmenich_AG_NATHALIE_LORSON_COULEUR23370_credit_Alexandre_Guirkinger.jpg"
      },
      "company": {
        "companyId": 197,
        "name": "Yves Saint Laurent",
        "website": "",
        "description": null,
        "companyType": "DESIGNER",
        "imagePath": "/scentdb-ui/mocks/images/companies/Yves_Saint_Laurent_logo_and_symbol.jpg"
      },
      "perfumeNotes": [
        {
          "notes": [
            192,
            109,
            91
          ],
          "type": "base notes"
        },
        {
          "notes": [
            112,
            140
          ],
          "type": "top notes"
        },
        {
          "notes": [
            89,
            204
          ],
          "type": "middle notes"
        }
      ],
      "images": [
        {
          "perfumeImageId": 207,
          "imagePath": "/scentdb-ui/mocks/images/perfumes/45685_img-8962-yves_saint_laurent-black_opium_eau_de_parfum_720.jpg"
        },
        {
          "perfumeImageId": 208,
          "imagePath": "/scentdb-ui/mocks/images/perfumes/45685_bdb3d32b6e42456b8b8b750bc69646d2_black_opium.jpg"
        }
      ]
    },
    {
      "perfumeId": 211,
      "title": "La Nuit de L'Homme",
      "launchYear": "2009",
      "gender": "MALE",
      "perfumeType": "EAU_DE_TOILETTE",
      "bottleSizes": "60ml,40ml,100ml",
      "description": null,
      "perfumer": {
        "perfumerId": 210,
        "name": "Anne Flipo",
        "details": null,
        "imagePath": "/scentdb-ui/mocks/images/perfumers/Anne-Flipo-Portrait-1.jpg"
      },
      "company": {
        "companyId": 197,
        "name": "Yves Saint Laurent",
        "website": "",
        "description": null,
        "companyType": "DESIGNER",
        "imagePath": "/scentdb-ui/mocks/images/companies/Yves_Saint_Laurent_logo_and_symbol.jpg"
      },
      "perfumeNotes": [
        {
          "notes": [
            92,
            133
          ],
          "type": "base notes"
        },
        {
          "notes": [
            111,
            87
          ],
          "type": "top notes"
        },
        {
          "notes": [
            105,
            209,
            192
          ],
          "type": "middle notes"
        }
      ],
      "images": [
        {
          "perfumeImageId": 213,
          "imagePath": "/scentdb-ui/mocks/images/perfumes/61r32iYtNkL._SL1500_.jpg"
        },
        {
          "perfumeImageId": 212,
          "imagePath": "/scentdb-ui/mocks/images/perfumes/1844_img-6527-yves_saint_laurent-la_nuit_de_l_homme_eau_de_toilette_720.jpg"
        }
      ]
    },
    {
      "perfumeId": 229,
      "title": "Reflection Man",
      "launchYear": "2007",
      "gender": "MALE",
      "perfumeType": "ESPIRIT_DE_PARFUM",
      "bottleSizes": "100ml",
      "description": null,
      "perfumer": {
        "perfumerId": 227,
        "name": "Lucas Sieuzac",
        "details": null,
        "imagePath": "/scentdb-ui/mocks/images/perfumers/post-7.jpg"
      },
      "company": {
        "companyId": 226,
        "name": "Amouage",
        "website": "",
        "description": null,
        "companyType": "NICHE",
        "imagePath": "/scentdb-ui/mocks/images/companies/6429f3bdb07d4e6594d6c1cab67eb9a8.jpg"
      },
      "perfumeNotes": [
        {
          "notes": [
            109,
            110,
            133,
            192
          ],
          "type": "base notes"
        },
        {
          "notes": [
            112,
            228
          ],
          "type": "top notes"
        },
        {
          "notes": [
            89,
            140,
            88,
            129
          ],
          "type": "middle notes"
        }
      ],
      "images": [
        {
          "perfumeImageId": 231,
          "imagePath": "/scentdb-ui/mocks/images/perfumes/2057_fdae1df6be376f36390fc9015ac8c9fc_reflection_man.jpg"
        },
        {
          "perfumeImageId": 230,
          "imagePath": "/scentdb-ui/mocks/images/perfumes/2057_img-4648-amouage-reflection_man_720.jpg"
        }
      ]
    },
    {
      "perfumeId": 224,
      "title": "Portrait of a Lady",
      "launchYear": "2010",
      "gender": "FEMALE",
      "perfumeType": "EXTRAIT_DE_PARFUM",
      "bottleSizes": "100ml,75ml,50ml",
      "description": null,
      "perfumer": {
        "perfumerId": 223,
        "name": "Dominique Ropion",
        "details": null,
        "imagePath": "/scentdb-ui/mocks/images/perfumers/dominique-ropion-square-1.jpg"
      },
      "company": {
        "companyId": 220,
        "name": "Editions de Parfums Frédéric Malle",
        "website": "",
        "description": null,
        "companyType": "NICHE",
        "imagePath": "/scentdb-ui/mocks/images/companies/frederic-malle-1.jpg"
      },
      "perfumeNotes": [
        {
          "notes": [
            143,
            148,
            144
          ],
          "type": "base notes"
        },
        {
          "notes": [
            134,
            90,
            161,
            221,
            222
          ],
          "type": "top notes"
        },
        {
          "notes": [
            110,
            142,
            109
          ],
          "type": "middle notes"
        }
      ],
      "images": [
        {
          "perfumeImageId": 225,
          "imagePath": "/scentdb-ui/mocks/images/perfumes/10407_img-9893-editions_de_parfums_frederic_malle-portrait_of_a_lady_720.jpg"
        }
      ]
    }
  ],
  "pageable": {
    "sort": {
      "sorted": false,
      "unsorted": true,
      "empty": true
    },
    "offset": 9,
    "pageNumber": 1,
    "pageSize": 9,
    "paged": true,
    "unpaged": false
  },
  "totalPages": 3,
  "totalElements": 21,
  "last": false,
  "first": false,
  "size": 9,
  "number": 1,
  "sort": {
    "sorted": false,
    "unsorted": true,
    "empty": true
  },
  "numberOfElements": 9,
  "empty": false
}