{
  "content": [
    {
      "description": null,
      "noteId": 109,
      "name": "Patchouli",
      "imgPath": "/mocks/images/notes/ulei-esen-ial-pur-paciuli-patchouli-pogostemon-cablin-15ml-25-1404.jpg"
    },
    {
      "description": null,
      "noteId": 127,
      "name": "Lilac",
      "imgPath": "/mocks/images/notes/Lilacs-sucker-feature.jpg"
    },
    {
      "description": null,
      "noteId": 143,
      "name": "Benzoin",
      "imgPath": "/mocks/images/notes/benzoin.jpg"
    },
    {
      "description": null,
      "noteId": 152,
      "name": "Gardenia",
      "imgPath": "/mocks/images/notes/19587224_m.jpg"
    },
    {
      "description": null,
      "noteId": 107,
      "name": "Geranium",
      "imgPath": "/mocks/images/notes/Geranium_February_2008-1.jpg"
    },
    {
      "description": null,
      "noteId": 215,
      "name": "Aquatic Notes",
      "imgPath": "/mocks/images/notes/photo-1488642945284-f5b65425f15a.jpg"
    },
    {
      "description": null,
      "noteId": 128,
      "name": "Peach",
      "imgPath": "/mocks/images/notes/peach.jpg"
    },
    {
      "description": null,
      "noteId": 156,
      "name": "Labdanum",
      "imgPath": "/mocks/images/notes/labdanum.jpg"
    },
    {
      "description": null,
      "noteId": 132,
      "name": "Spices",
      "imgPath": "/mocks/images/notes/photo-1581600140682-d4e68c8cde32.jpg"
    }
  ],
  "pageable": {
    "sort": {
      "sorted": false,
      "unsorted": true,
      "empty": true
    },
    "offset": 18,
    "pageNumber": 2,
    "pageSize": 9,
    "paged": true,
    "unpaged": false
  },
  "totalPages": 8,
  "totalElements": 65,
  "last": false,
  "first": false,
  "size": 9,
  "number": 2,
  "sort": {
    "sorted": false,
    "unsorted": true,
    "empty": true
  },
  "numberOfElements": 9,
  "empty": false
}