{
  "content": [
    {
      "description": null,
      "noteId": 139,
      "name": "Frangipani",
      "imgPath": "/scentdb-ui/mocks/images/notes/photo-1579977338243-d5017ac698e6.jpg"
    },
    {
      "description": null,
      "noteId": 184,
      "name": "May Rose",
      "imgPath": "/scentdb-ui/mocks/images/notes/Rose%20de%20Mai%20Absolue.jpg"
    },
    {
      "description": null,
      "noteId": 189,
      "name": "Myrrh",
      "imgPath": "/scentdb-ui/mocks/images/notes/myrrh-gum.jpg"
    },
    {
      "description": null,
      "noteId": 198,
      "name": "Pear",
      "imgPath": "/scentdb-ui/mocks/images/notes/photo-1607863156356-241cfc99670b.jpg"
    },
    {
      "description": null,
      "noteId": 161,
      "name": "Blackcurrant",
      "imgPath": "/scentdb-ui/mocks/images/notes/70.jpg"
    },
    {
      "description": null,
      "noteId": 170,
      "name": "Clary Sage",
      "imgPath": "/scentdb-ui/mocks/images/notes/OClarySageOil2_400x400_crop_center@2x.jpg"
    },
    {
      "description": null,
      "noteId": 130,
      "name": "Ambergris",
      "imgPath": "/scentdb-ui/mocks/images/notes/Whale-vomit.jpg"
    },
    {
      "description": null,
      "noteId": 179,
      "name": "Brazilian rosewood",
      "imgPath": "/scentdb-ui/mocks/images/notes/newly-felled-rosewood-tree.jpg"
    },
    {
      "description": null,
      "noteId": 106,
      "name": "Viola",
      "imgPath": "/scentdb-ui/mocks/images/notes/f37b527895509749de3374f4b8e84521.jpg"
    }
  ],
  "pageable": {
    "sort": {
      "sorted": false,
      "unsorted": true,
      "empty": true
    },
    "offset": 36,
    "pageNumber": 4,
    "pageSize": 9,
    "paged": true,
    "unpaged": false
  },
  "totalPages": 8,
  "totalElements": 65,
  "last": false,
  "first": false,
  "size": 9,
  "number": 4,
  "sort": {
    "sorted": false,
    "unsorted": true,
    "empty": true
  },
  "numberOfElements": 9,
  "empty": false
}