{
  "content": [
    {
      "companyId": 197,
      "name": "Yves Saint Laurent",
      "website": "",
      "description": null,
      "companyType": "DESIGNER",
      "imagePath": "/scentdb-ui/mocks/images/companies/Yves_Saint_Laurent_logo_and_symbol.jpg",
      "perfumers": [
        {
          "perfumerId": 210,
          "name": "Anne Flipo",
          "details": null,
          "imagePath": "/scentdb-ui/mocks/images/perfumers/Anne-Flipo-Portrait-1.jpg"
        },
        {
          "perfumerId": 205,
          "name": "Nathalie Lorson",
          "details": null,
          "imagePath": "/scentdb-ui/mocks/images/perfumers/Firmenich_AG_NATHALIE_LORSON_COULEUR23370_credit_Alexandre_Guirkinger.jpg"
        }
      ],
      "perfumes": [
        {
          "perfumeId": 206,
          "title": "Black Opium",
          "launchYear": "2014",
          "gender": "FEMALE",
          "perfumeType": "EAU_DE_PARFUM",
          "bottleSizes": "30ml,50ml",
          "description": "<iframe class=\"ql-video\" frameborder=\"0\" allowfullscreen=\"true\" src=\"https://www.youtube.com/embed/uh4UURJANdk?showinfo=0\"></iframe><p><br></p>",
          "perfumer": {
            "perfumerId": 205,
            "name": "Nathalie Lorson",
            "details": null,
            "imagePath": "/scentdb-ui/mocks/images/perfumers/Firmenich_AG_NATHALIE_LORSON_COULEUR23370_credit_Alexandre_Guirkinger.jpg"
          },
          "perfumeNotes": [
            {
              "notes": [
                192,
                109,
                91
              ],
              "type": "base notes"
            },
            {
              "notes": [
                112,
                140
              ],
              "type": "top notes"
            },
            {
              "notes": [
                89,
                204
              ],
              "type": "middle notes"
            }
          ],
          "images": [
            {
              "perfumeImageId": 207,
              "imagePath": "/scentdb-ui/mocks/images/perfumes/45685_img-8962-yves_saint_laurent-black_opium_eau_de_parfum_720.jpg"
            },
            {
              "perfumeImageId": 208,
              "imagePath": "/scentdb-ui/mocks/images/perfumes/45685_bdb3d32b6e42456b8b8b750bc69646d2_black_opium.jpg"
            }
          ]
        },
        {
          "perfumeId": 211,
          "title": "La Nuit de L'Homme",
          "launchYear": "2009",
          "gender": "MALE",
          "perfumeType": "EAU_DE_TOILETTE",
          "bottleSizes": "60ml,40ml,100ml",
          "description": null,
          "perfumer": {
            "perfumerId": 210,
            "name": "Anne Flipo",
            "details": null,
            "imagePath": "/scentdb-ui/mocks/images/perfumers/Anne-Flipo-Portrait-1.jpg"
          },
          "perfumeNotes": [
            {
              "notes": [
                92,
                133
              ],
              "type": "base notes"
            },
            {
              "notes": [
                111,
                87
              ],
              "type": "top notes"
            },
            {
              "notes": [
                105,
                209,
                192
              ],
              "type": "middle notes"
            }
          ],
          "images": [
            {
              "perfumeImageId": 212,
              "imagePath": "/scentdb-ui/mocks/images/perfumes/1844_img-6527-yves_saint_laurent-la_nuit_de_l_homme_eau_de_toilette_720.jpg"
            },
            {
              "perfumeImageId": 213,
              "imagePath": "/scentdb-ui/mocks/images/perfumes/61r32iYtNkL._SL1500_.jpg"
            }
          ]
        }
      ]
    },
    {
      "companyId": 85,
      "name": "Guerlain",
      "website": "https://www.guerlain.com/",
      "description": "\"<p>Guerlain is one of the oldest and largest among international producers of high-quality beauty products.</p>\"",
      "companyType": "NICHE",
      "imagePath": "/scentdb-ui/mocks/images/companies/guerlain-logo-png-Transparent-Images.jpg",
      "perfumers": [
        {
          "perfumerId": 86,
          "name": "Jacques Guerlain",
          "details": "\"<p>Jacques Edouard Guerlain was a French perfumer, the third and most famous of the Guerlain family. One of the most prolific and influential perfumers of the 20th century, over eighty of Guerlain's perfumes remain known, though certain estimates suggest he composed some four hundred.</p>\"",
          "imagePath": "/scentdb-ui/mocks/images/perfumers/jacques-guerlain.jpg"
        }
      ],
      "perfumes": [
        {
          "perfumeId": 100,
          "title": "Shalimar",
          "launchYear": "1986",
          "gender": "FEMALE",
          "perfumeType": "EAU_DE_PARFUM",
          "bottleSizes": "50ml,30ml",
          "description": "<p><strong>Shalimar (Eau de Parfum)</strong>&nbsp;is a popular perfume by&nbsp;<strong>Guerlain&nbsp;</strong>for women and was released in&nbsp;<strong>1986</strong>. The scent is oriental-spicy. Projection and longevity are above-average. It is being marketed by LVMH.</p>",
          "perfumer": {
            "perfumerId": 86,
            "name": "Jacques Guerlain",
            "details": "\"<p>Jacques Edouard Guerlain was a French perfumer, the third and most famous of the Guerlain family. One of the most prolific and influential perfumers of the 20th century, over eighty of Guerlain's perfumes remain known, though certain estimates suggest he composed some four hundred.</p>\"",
            "imagePath": "/scentdb-ui/mocks/images/perfumers/jacques-guerlain.jpg"
          },
          "perfumeNotes": [
            {
              "notes": [
                92,
                91
              ],
              "type": "base notes"
            },
            {
              "notes": [
                87
              ],
              "type": "top notes"
            },
            {
              "notes": [
                88,
                90,
                89
              ],
              "type": "middle notes"
            }
          ],
          "images": [
            {
              "perfumeImageId": 102,
              "imagePath": "/scentdb-ui/mocks/images/perfumes/guerlain-shalimar-eau-de-parfum-pentru-femei___12.jpg"
            },
            {
              "perfumeImageId": 101,
              "imagePath": "/scentdb-ui/mocks/images/perfumes/guerlain-shalimar-eau-de-parfum-pentru-femei___12%20(1).jpg"
            }
          ]
        },
        {
          "perfumeId": 135,
          "title": "Mitsouko",
          "launchYear": "1919",
          "gender": "FEMALE",
          "perfumeType": "EAU_DE_TOILETTE",
          "bottleSizes": "50ml",
          "description": "<p>Mitsouko&nbsp;is a 1919&nbsp;perfume&nbsp;by&nbsp;Guerlain. Its name is derived from the French&nbsp;transliteration&nbsp;of a&nbsp;Japanese female&nbsp;personal name&nbsp;Mitsuko.</p>",
          "perfumer": {
            "perfumerId": 86,
            "name": "Jacques Guerlain",
            "details": "\"<p>Jacques Edouard Guerlain was a French perfumer, the third and most famous of the Guerlain family. One of the most prolific and influential perfumers of the 20th century, over eighty of Guerlain's perfumes remain known, though certain estimates suggest he composed some four hundred.</p>\"",
            "imagePath": "/scentdb-ui/mocks/images/perfumers/jacques-guerlain.jpg"
          },
          "perfumeNotes": [
            {
              "notes": [
                132,
                133,
                130,
                131,
                134
              ],
              "type": "base notes"
            },
            {
              "notes": [
                90,
                89,
                126,
                87
              ],
              "type": "top notes"
            },
            {
              "notes": [
                129,
                128,
                127
              ],
              "type": "middle notes"
            }
          ],
          "images": [
            {
              "perfumeImageId": 136,
              "imagePath": "/scentdb-ui/mocks/images/perfumes/50ml-199lei_edttt.jpg"
            }
          ]
        }
      ]
    },
    {
      "companyId": 220,
      "name": "Editions de Parfums Frédéric Malle",
      "website": "",
      "description": null,
      "companyType": "NICHE",
      "imagePath": "/scentdb-ui/mocks/images/companies/frederic-malle-1.jpg",
      "perfumers": [
        {
          "perfumerId": 223,
          "name": "Dominique Ropion",
          "details": null,
          "imagePath": "/scentdb-ui/mocks/images/perfumers/dominique-ropion-square-1.jpg"
        }
      ],
      "perfumes": [
        {
          "perfumeId": 224,
          "title": "Portrait of a Lady",
          "launchYear": "2010",
          "gender": "FEMALE",
          "perfumeType": "EXTRAIT_DE_PARFUM",
          "bottleSizes": "100ml,75ml,50ml",
          "description": null,
          "perfumer": {
            "perfumerId": 223,
            "name": "Dominique Ropion",
            "details": null,
            "imagePath": "/scentdb-ui/mocks/images/perfumers/dominique-ropion-square-1.jpg"
          },
          "perfumeNotes": [
            {
              "notes": [
                143,
                148,
                144
              ],
              "type": "base notes"
            },
            {
              "notes": [
                134,
                90,
                161,
                221,
                222
              ],
              "type": "top notes"
            },
            {
              "notes": [
                110,
                142,
                109
              ],
              "type": "middle notes"
            }
          ],
          "images": [
            {
              "perfumeImageId": 225,
              "imagePath": "/scentdb-ui/mocks/images/perfumes/10407_img-9893-editions_de_parfums_frederic_malle-portrait_of_a_lady_720.jpg"
            }
          ]
        }
      ]
    },
    {
      "companyId": 226,
      "name": "Amouage",
      "website": "",
      "description": null,
      "companyType": "NICHE",
      "imagePath": "/scentdb-ui/mocks/images/companies/6429f3bdb07d4e6594d6c1cab67eb9a8.jpg",
      "perfumers": [
        {
          "perfumerId": 227,
          "name": "Lucas Sieuzac",
          "details": null,
          "imagePath": "/scentdb-ui/mocks/images/perfumers/post-7.jpg"
        }
      ],
      "perfumes": [
        {
          "perfumeId": 229,
          "title": "Reflection Man",
          "launchYear": "2007",
          "gender": "MALE",
          "perfumeType": "ESPIRIT_DE_PARFUM",
          "bottleSizes": "100ml",
          "description": null,
          "perfumer": {
            "perfumerId": 227,
            "name": "Lucas Sieuzac",
            "details": null,
            "imagePath": "/scentdb-ui/mocks/images/perfumers/post-7.jpg"
          },
          "perfumeNotes": [
            {
              "notes": [
                109,
                110,
                133,
                192
              ],
              "type": "base notes"
            },
            {
              "notes": [
                112,
                228
              ],
              "type": "top notes"
            },
            {
              "notes": [
                89,
                140,
                88,
                129
              ],
              "type": "middle notes"
            }
          ],
          "images": [
            {
              "perfumeImageId": 230,
              "imagePath": "/scentdb-ui/mocks/images/perfumes/2057_img-4648-amouage-reflection_man_720.jpg"
            },
            {
              "perfumeImageId": 231,
              "imagePath": "/scentdb-ui/mocks/images/perfumes/2057_fdae1df6be376f36390fc9015ac8c9fc_reflection_man.jpg"
            }
          ]
        }
      ]
    },
    {
      "companyId": 146,
      "name": "Chanel",
      "website": "",
      "description": null,
      "companyType": "DESIGNER",
      "imagePath": "/scentdb-ui/mocks/images/companies/_1513770089_693_chanel1_3f16706be8a9-desktop.jpg",
      "perfumers": [
        {
          "perfumerId": 147,
          "name": "Jacques Polge",
          "details": null,
          "imagePath": "/scentdb-ui/mocks/images/perfumers/101850336_2342590866046808_3044476289185480704_n.jpg"
        }
      ],
      "perfumes": [
        {
          "perfumeId": 149,
          "title": "Coco",
          "launchYear": "1984",
          "gender": "FEMALE",
          "perfumeType": "EXTRAIT_DE_PARFUM",
          "bottleSizes": "15ml",
          "description": "<h1>Description</h1><p>COCO expresses the intensity of Gabrielle Chanel's personality, her love of all things baroque. The quintessence of this oriental fragrance with floral and spicy notes, the Parfum is housed in an iconic bottle hand-sealed with a baudruche film.</p><p><br></p><h1>Composition</h1><p>A baroque score written with oriental, floral and spicy notes.</p><p>The fragrance opens with a citrus note of Sicilian Mandarin, and reveals a voluptuous heart of Jasmine and May Rose Absolutes. A luxuriant harmony with an enveloping trail tinged with Indonesian Patchouli, Tonka note and Benzoin.</p>",
          "perfumer": {
            "perfumerId": 147,
            "name": "Jacques Polge",
            "details": null,
            "imagePath": "/scentdb-ui/mocks/images/perfumers/101850336_2342590866046808_3044476289185480704_n.jpg"
          },
          "perfumeNotes": [
            {
              "notes": [
                144,
                148,
                145,
                143,
                109,
                92,
                142
              ],
              "type": "base notes"
            },
            {
              "notes": [
                104,
                139,
                138,
                137
              ],
              "type": "top notes"
            },
            {
              "notes": [
                89,
                134,
                141,
                129,
                90,
                140,
                88
              ],
              "type": "middle notes"
            }
          ],
          "images": [
            {
              "perfumeImageId": 150,
              "imagePath": "/scentdb-ui/mocks/images/perfumes/coco-parfum-0-5fl-oz--packshot-default-113032-8824202526750.jpg"
            }
          ]
        }
      ]
    },
    {
      "companyId": 237,
      "name": "Balenciaga",
      "website": "",
      "description": null,
      "companyType": "DESIGNER",
      "imagePath": "/scentdb-ui/mocks/images/companies/51861665_1310462502438355_4913243715286233204_n.jpg",
      "perfumers": [],
      "perfumes": [
        {
          "perfumeId": 238,
          "title": "Florabotanica",
          "launchYear": "2012",
          "gender": "FEMALE",
          "perfumeType": "EAU_FRAICHE",
          "bottleSizes": "30ml,50ml,100ml",
          "description": null,
          "perfumer": {
            "perfumerId": 200,
            "name": "Olivier Polge",
            "details": null,
            "imagePath": "/scentdb-ui/mocks/images/perfumers/Olivier-Polge-3.jpg"
          },
          "perfumeNotes": [
            {
              "notes": [
                133
              ],
              "type": "base notes"
            },
            {
              "notes": [
                148
              ],
              "type": "top notes"
            },
            {
              "notes": [
                90,
                154
              ],
              "type": "middle notes"
            }
          ],
          "images": [
            {
              "perfumeImageId": 239,
              "imagePath": "/scentdb-ui/mocks/images/perfumes/19424_ecc32fece728516add7be1970f142827_florabotanica.jpg"
            },
            {
              "perfumeImageId": 240,
              "imagePath": "/scentdb-ui/mocks/images/perfumes/19424_acsbdy_florabotanica_720.jpg"
            },
            {
              "perfumeImageId": 241,
              "imagePath": "/scentdb-ui/mocks/images/perfumes/19424_11bf70aa745552cfd09d746ded877a42_florabotanica.jpg"
            }
          ]
        }
      ]
    },
    {
      "companyId": 164,
      "name": "Creed",
      "website": "",
      "description": null,
      "companyType": "NICHE",
      "imagePath": "/scentdb-ui/mocks/images/companies/creed_silver_mountain_water_edp_perfume_for_men_120ml_1_1200x1200.jpg",
      "perfumers": [
        {
          "perfumerId": 165,
          "name": "Olivier Creed",
          "details": null,
          "imagePath": "/scentdb-ui/mocks/images/perfumers/o.164.jpg"
        }
      ],
      "perfumes": [
        {
          "perfumeId": 166,
          "title": "Aventus",
          "launchYear": "2010",
          "gender": "MALE",
          "perfumeType": "EAU_DE_PARFUM",
          "bottleSizes": "50ml,100ml",
          "description": "<p>Aventus&nbsp;is an Eau de Parfum launched by Paris-based perfume house&nbsp;Creed. The fragrance was released in September 2010, as part of the celebrations for Creed's 250th Anniversary.</p>",
          "perfumer": {
            "perfumerId": 165,
            "name": "Olivier Creed",
            "details": null,
            "imagePath": "/scentdb-ui/mocks/images/perfumers/o.164.jpg"
          },
          "perfumeNotes": [
            {
              "notes": [
                144,
                130,
                131,
                91
              ],
              "type": "base notes"
            },
            {
              "notes": [
                103,
                161,
                87,
                160
              ],
              "type": "top notes"
            },
            {
              "notes": [
                162,
                163,
                109,
                89
              ],
              "type": "middle notes"
            }
          ],
          "images": [
            {
              "perfumeImageId": 167,
              "imagePath": "/scentdb-ui/mocks/images/perfumes/nm_2220365_100000_c.jpg"
            },
            {
              "perfumeImageId": 168,
              "imagePath": "/scentdb-ui/mocks/images/perfumes/9438_img-3926-creed-aventus_eau_de_parfum_720.jpg"
            },
            {
              "perfumeImageId": 169,
              "imagePath": "/scentdb-ui/mocks/images/perfumes/9438_e3b0786cdb9e3bd42c201f83b425ecf4.jpg"
            }
          ]
        }
      ]
    },
    {
      "companyId": 232,
      "name": "Roja Parfums",
      "website": "",
      "description": null,
      "companyType": "NICHE",
      "imagePath": "/scentdb-ui/mocks/images/companies/Roja-logo.jpg",
      "perfumers": [
        {
          "perfumerId": 233,
          "name": "Roja Dove",
          "details": null,
          "imagePath": "/scentdb-ui/mocks/images/perfumers/ROJA-MOSCOW_Edited.jpg"
        }
      ],
      "perfumes": [
        {
          "perfumeId": 234,
          "title": "Elysium",
          "launchYear": "2017",
          "gender": "MALE",
          "perfumeType": "EAU_DE_COLOGNE",
          "bottleSizes": "100ml",
          "description": null,
          "perfumer": {
            "perfumerId": 233,
            "name": "Roja Dove",
            "details": null,
            "imagePath": "/scentdb-ui/mocks/images/perfumers/ROJA-MOSCOW_Edited.jpg"
          },
          "perfumeNotes": [
            {
              "notes": [
                192,
                143,
                91,
                163,
                156,
                112,
                151,
                144,
                133,
                171,
                130
              ],
              "type": "base notes"
            },
            {
              "notes": [
                105,
                87
              ],
              "type": "top notes"
            },
            {
              "notes": [
                103,
                184,
                161,
                89
              ],
              "type": "middle notes"
            }
          ],
          "images": [
            {
              "perfumeImageId": 235,
              "imagePath": "/scentdb-ui/mocks/images/perfumes/92779_33496f08edfec3d35bcdbf2a5623f701_elysium_pour_homme_parfum_cologne.jpg"
            },
            {
              "perfumeImageId": 236,
              "imagePath": "/scentdb-ui/mocks/images/perfumes/92779_img-8091-roja_parfums-elysium_pour_homme_parfum_cologne_720.jpg"
            }
          ]
        }
      ]
    },
    {
      "companyId": 121,
      "name": "Dior",
      "website": "",
      "description": null,
      "companyType": "DESIGNER",
      "imagePath": "/scentdb-ui/mocks/images/companies/ac452a99938c35aa0519d215b13ab9ee.jpg",
      "perfumers": [
        {
          "perfumerId": 122,
          "name": "François Demachy",
          "details": null,
          "imagePath": "/scentdb-ui/mocks/images/perfumers/06Y0184_HR.jpg"
        },
        {
          "perfumerId": 157,
          "name": "Edmond Roudnitska",
          "details": null,
          "imagePath": "/scentdb-ui/mocks/images/perfumers/olivier-maure.jpg"
        },
        {
          "perfumerId": 247,
          "name": "Annick Menardo",
          "details": null,
          "imagePath": "/scentdb-ui/mocks/images/perfumers/annick-menardo-full.jpg"
        }
      ],
      "perfumes": [
        {
          "perfumeId": 158,
          "title": "Miss Dior",
          "launchYear": "1947",
          "gender": "FEMALE",
          "perfumeType": "EAU_DE_TOILETTE",
          "bottleSizes": "100ml",
          "description": null,
          "perfumer": {
            "perfumerId": 157,
            "name": "Edmond Roudnitska",
            "details": null,
            "imagePath": "/scentdb-ui/mocks/images/perfumers/olivier-maure.jpg"
          },
          "perfumeNotes": [
            {
              "notes": [
                131,
                109,
                110,
                156
              ],
              "type": "base notes"
            },
            {
              "notes": [
                153,
                152,
                87,
                151
              ],
              "type": "top notes"
            },
            {
              "notes": [
                89,
                90,
                140,
                154,
                155
              ],
              "type": "middle notes"
            }
          ],
          "images": [
            {
              "perfumeImageId": 159,
              "imagePath": "/scentdb-ui/mocks/images/perfumes/miss-dior-originale.jpg"
            }
          ]
        },
        {
          "perfumeId": 248,
          "title": "Hypnotic Poison",
          "launchYear": "1998",
          "gender": "FEMALE",
          "perfumeType": "EAU_DE_TOILETTE",
          "bottleSizes": "30ml,50ml,100ml",
          "description": null,
          "perfumer": {
            "perfumerId": 247,
            "name": "Annick Menardo",
            "details": null,
            "imagePath": "/scentdb-ui/mocks/images/perfumers/annick-menardo-full.jpg"
          },
          "perfumeNotes": [
            {
              "notes": [
                91,
                110
              ],
              "type": "base notes"
            },
            {
              "notes": [
                137
              ],
              "type": "top notes"
            },
            {
              "notes": [
                90,
                179,
                89
              ],
              "type": "middle notes"
            }
          ],
          "images": [
            {
              "perfumeImageId": 249,
              "imagePath": "/scentdb-ui/mocks/images/perfumes/675_img-6131-dior-hypnotic_poison_eau_de_toilette_720.jpg"
            }
          ]
        },
        {
          "perfumeId": 123,
          "title": "Dior Homme Intense",
          "launchYear": "2011",
          "gender": "MALE",
          "perfumeType": "EAU_DE_PARFUM",
          "bottleSizes": "150ml,100ml,50ml",
          "description": "<p><span style=\"color: rgb(0, 0, 0);\">Dior Homme Intense is the third fragrances in the Homme series, following</span>&nbsp;Dior Homme&nbsp;and&nbsp;Dior Homme Cologne<span style=\"color: rgb(0, 0, 0);\">. The fragrance was originally a limited edition, but is now part of the permanent line up.</span></p>",
          "perfumer": {
            "perfumerId": 122,
            "name": "François Demachy",
            "details": null,
            "imagePath": "/scentdb-ui/mocks/images/perfumers/06Y0184_HR.jpg"
          },
          "perfumeNotes": [
            {
              "notes": [
                120
              ],
              "type": "base notes"
            },
            {
              "notes": [
                88
              ],
              "type": "top notes"
            },
            {
              "notes": [
                119
              ],
              "type": "middle notes"
            }
          ],
          "images": [
            {
              "perfumeImageId": 124,
              "imagePath": "/scentdb-ui/mocks/images/perfumes/dior-homme-intense-edp-150ml_big.jpg"
            },
            {
              "perfumeImageId": 125,
              "imagePath": "/scentdb-ui/mocks/images/perfumes/13889_img-2650-dior-christian-dior-dior-homme-intense-2011_720.jpg"
            }
          ]
        }
      ]
    }
  ],
  "pageable": {
    "sort": {
      "sorted": false,
      "unsorted": true,
      "empty": true
    },
    "offset": 0,
    "pageNumber": 0,
    "pageSize": 9,
    "paged": true,
    "unpaged": false
  },
  "totalPages": 2,
  "totalElements": 17,
  "last": false,
  "first": true,
  "size": 9,
  "number": 0,
  "sort": {
    "sorted": false,
    "unsorted": true,
    "empty": true
  },
  "numberOfElements": 9,
  "empty": false
}